/*From riraheta@cecs.csulb.edu Thu Jan 27 21:08:25 2005
Date: Thu, 27 Jan 2005 21:04:02 -0800
From: Ricardo Iraheta <riraheta@cecs.csulb.edu>
To: progcont@cecs.csulb.edu
Subject: P1
*/

#include<iostream>
#include<string>
#include<cstring>
#include<stack>
#include<queue>
#include<map>
#include<cstdlib>
#include<cctype>
#include<algorithm>
#include<cmath>
#include<iomanip>
#include<vector>
using namespace std;


int main()
{
    int  array[11];
    int i;

    int die1, die2, sum;
   
    die1 = die2 = sum = 0;
   
    for (i=0; i<=10; i++) //initialize
            array[i] = 0;
   
   
   while(cin >> die1 >> die2)
   {
    
    // cin >> die1 >> die2;    
     sum = die1 + die2;
    
    // cout<< sum <<endl;

    if ( sum >1 || sum < 13)
    {      
   
   // Dice.d1 = die1;
   // Dice.d2 = die2;

      array[sum-2] += 1;

     
     }//end
   
   }//end second
   

   for(int c=0; c<=10; c++)
           cout<< c+2 <<":"<< array[c]<<endl;
          
  
    return 0;
}
















